…
```
true
```


In the case where there are new levels of the grouping variable, these methods differ.

```julia
# create a new level
slp2 = transform(slp, :subj => ByRow(x -> (x == "S308" ? "NEW" : x)) => :subj)
```


```
180×3 DataFrame
 Row │ subj    days  reaction
     │ String  Int8  Float64
─────┼────────────────────────
   1 │ NEW        0   249.56
   2 │ NEW        1   258.705
   3 │ NEW        2   250.801
   4 │ NEW        3   321.44
   5 │ NEW        4   356.852
   6 │ NEW        5   414.69
   7 │ NEW        6   382.204
   8 │ NEW        7   290.149
  ⋮  │   ⋮      ⋮       ⋮
 174 │ S372       3   310.632
 175 │ S372       4   287.173
 176 │ S372       5   329.608
 177 │ S372       6   334.482
 178 │ S372       7   343.22
 179 │ S372       8   369.142
 180 │ S372       9   364.124
              165 rows omitted
```
…
This inplace simulation actually forms the basis of [`parametricbootstrap`](/bootstrap#MixedModels.parametricbootstrap).

Finally, we can also simulate the response from entirely new data.

```julia
df = DataFrame(days = repeat(1:10, outer=20), subj=repeat(1:20, inner=10))
df[!, :subj] = string.("S", lpad.(df.subj, 2, "0"))
df[!, :reaction] .= 0
df
```


```
200×3 DataFrame
 Row │ days   subj    reaction
     │ Int64  String  Int64
─────┼─────────────────────────
   1 │     1  S01            0
   2 │     2  S01            0
   3 │     3  S01            0
   4 │     4  S01            0
   5 │     5  S01            0
   6 │     6  S01            0
   7 │     7  S01            0
   8 │     8  S01            0
  ⋮  │   ⋮      ⋮        ⋮
 194 │     4  S20            0
 195 │     5  S20            0
 196 │     6  S20            0
 197 │     7  S20            0
 198 │     8  S20            0
 199 │     9  S20            0
 200 │    10  S20            0
               185 rows omitted
```
…
